{
    "$schema": "http://json-schema.org/draft-07/schema#",
    "title": "911 DataPath Report JSON Message Schema",
    "description": "Payload message schema for DataPath 911",
    "type": "object",
    "additionalProperties": false,
    "@context": {
        "dp911xcg": "http://www.dataPath911.gov/data-path-911-exchange/1.0",
        "nc": "http://release.niem.gov/niem/niem-core/4.0/#"
    },
    "properties": {
        "dp911xcg:DataPath911ReportMessage": {
            "description": "A common wrapper for the 911 Data Path Request.",
			"$ref": "./niem/nc.schema.json#/definitions/nc:DocumentType"
        }
    }
}