{
    "$schema": "http://json-schema.org/draft-07/schema#",
    "title": "EM subset schema",
    "description": "Subset of the Emergency Management schema",
    "type": "object",
    "additionalProperties": false,
    "@context": {
        "clsa": "http://reference.niem.gov/niem/specification/code-lists/1.0/code-lists-schema-appinfo/#",
        "ct": "http://release.niem.gov/niem/conformanceTargets/3.0/#",
        "em": "http://release.niem.gov/niem/domains/emergencyManagement/4.2/#",
        "nc": "http://release.niem.gov/niem/niem-core/4.0/#",
        "niem-xs": "http://release.niem.gov/niem/proxy/xsd/4.0/#",
        "structures": "http://release.niem.gov/niem/structures/4.0/#",
        "term": "http://release.niem.gov/niem/localTerminology/3.0/#",
        "unece": "http://release.niem.gov/niem/codes/unece_rec20/4.0/#",
        "usps": "http://release.niem.gov/niem/codes/usps_states/4.0/#",
        "xs": "http://www.w3.org/2001/XMLSchema#"
    },
    "definitions": {
		"em:DocumentAugmentationType": {
			"additionalProperties": false,
			"description": "A data type for additional information about a document.",
			"properties": {
				"em:DocumentCoverageDateRange": {
					"$ref": "#/definitions/em:DocumentCoverageDateRange"
				}
			},
			"required": ["em:DocumentCoverageDateRange"],
			"type": "object"
		},
		"em:DocumentCoveredDateRange": {
			"$ref": "./nc.schema.json#/definitions/nc:DateRangeType",
			"description": "A period of time covered by a document."
		}
    }
}